%YAML 1.1
%TAG !u! tag:unity3d.com,2011:
--- !u!1045 &1
EditorBuildSettings:
  m_ObjectHideFlags: 0
  serializedVersion: 2
  m_Scenes:
  - enabled: 0
    path: Assets/Completed/Scenes/Main (Completed).unity
    guid: 00000000000000000000000000000000
  - enabled: 0
    path: Assets/Main.unity
    guid: dcca743532318af42972963e5c17be65
